<?xml version="1.0" encoding="UTF-8" standalone="no"?>
<svg
   xmlns:dc="http://purl.org/dc/elements/1.1/"
   xmlns:cc="http://creativecommons.org/ns#"
   xmlns:rdf="http://www.w3.org/1999/02/22-rdf-syntax-ns#"
   xmlns:svg="http://www.w3.org/2000/svg"
   xmlns="http://www.w3.org/2000/svg"
   xmlns:sodipodi="http://sodipodi.sourceforge.net/DTD/sodipodi-0.dtd"
   xmlns:inkscape="http://www.inkscape.org/namespaces/inkscape"
   id="svg2"
   height="179.5551"
   width="200"
   version="1.0"
   sodipodi:docname="rueassas.svg"
   inkscape:version="0.92.4 (5da689c313, 2019-01-14)">
  <sodipodi:namedview
     pagecolor="#ffffff"
     bordercolor="#666666"
     borderopacity="1"
     objecttolerance="10"
     gridtolerance="10"
     guidetolerance="10"
     inkscape:pageopacity="0"
     inkscape:pageshadow="2"
     inkscape:window-width="640"
     inkscape:window-height="480"
     id="namedview917"
     showgrid="false"
     inkscape:zoom="1.3143598"
     inkscape:cx="100"
     inkscape:cy="89.397136"
     inkscape:window-x="0"
     inkscape:window-y="27"
     inkscape:window-maximized="0"
     inkscape:current-layer="svg2" />
  <metadata
     id="metadata871">
    <rdf:RDF>
      <cc:Work
         rdf:about="">
        <dc:format>image/svg+xml</dc:format>
        <dc:type
           rdf:resource="http://purl.org/dc/dcmitype/StillImage" />
        <dc:title></dc:title>
      </cc:Work>
    </rdf:RDF>
  </metadata>
  <defs
     id="defs4" />
  <rect
     style="fill:#002669;fill-opacity:1;fill-rule:nonzero;stroke:none"
     id="rect3816"
     y="52.832954"
     x="3.6112523"
     height="121.79771"
     width="191.7247" />
  <path
     style="fill:none;stroke:#ffffff;stroke-width:1.00375891px;stroke-linecap:butt;stroke-linejoin:miter;stroke-opacity:1"
     id="path2933"
     d="m 186.69788,74.232477 0,79.809593" />
  <path
     style="fill:none;stroke:#ffffff;stroke-width:1.00337422px;stroke-linecap:butt;stroke-linejoin:miter;stroke-opacity:1"
     id="path2931"
     d="m 25.512654,167.05341 148.953866,0" />
  <path
     style="fill:#004629;fill-opacity:1;fill-rule:nonzero;stroke:none"
     id="rect2976"
     d="M 100,0 C 71.698381,0 52.457318,14.347814 42.0625,32.28125 c -1.415984,2.392013 -5.922277,7.397331 -11.40625,8.5625 l 0,7.96875 -4.96875,0 -25.6875,0 0,23.6875 0,2 0,79.375 0,0.375 0,25.3125 25.6875,0 151.4375,0 22.875,0 0,-25.6875 0,-79.71875 0,-25.34375 -21.71875,0 -8.9375,0 0,-7.96875 C 163.85978,39.678581 159.35348,34.673263 157.9375,32.28125 147.54268,14.347814 128.30162,0 100,0 z m -74.3125,60.3125 148.625,0 0,3.0625 c 0,6.171364 4.98488,11.125 11.15625,11.125 l 1.71875,0 0,79.375 -1.71875,0 c -6.17136,0 -11.15625,4.98489 -11.15625,11.15625 l 0,2.53125 -148.625,0 0,-2.53125 c 0,-6.17137 -4.984886,-11.15625 -11.15625,-11.15625 l -1.71875,0 0,-79.375 1.71875,0 c 6.171364,0 11.15625,-4.953636 11.15625,-11.125 l 0,-3.0625 z" />
  <path
     style="fill:#002669;fill-opacity:1;fill-rule:evenodd;stroke:none"
     id="path3270"
     d="m 110.12214,11.368862 c 1e-4,0.0202 0,0.03913 0,0.05937 0,6.328282 -5.12965,11.487596 -11.457914,11.487596 -6.209428,0 -11.269981,-4.967271 -11.457912,-11.131392 -0.02849,0.0049 -0.06059,-0.005 -0.08905,0 C 70.836445,14.641431 59.318263,22.831105 52.476371,32.592715 51.31522,34.21489 47.623089,44.893066 43.126002,45.683232 l 0,3.651097 113.747978,0 0,-3.651097 C 152.3769,44.893066 148.68477,34.214889 147.52362,32.592715 140.30403,22.292246 127.85683,13.748778 110.12214,11.368862 z" />
  <path
     style="fill:#ffffff;fill-opacity:1;fill-rule:evenodd;stroke:none"
     id="path3171"
     d="m 121.01035,13.486331 -0.20568,0.315104 c 7.15768,3.542183 12.1954,5.637863 16.29996,8.609767 4.10456,2.971905 7.36613,6.681239 11.13139,13.238936 1.74809,3.044504 3.82349,6.697443 7.62872,9.825308 l 0,3.591729 -112.738738,0 0,0.949879 113.213678,0 0.47494,0 0,-0.474939 0,-4.244771 0,-0.23747 -0.17811,-0.148418 c -3.78025,-3.037589 -5.7866,-6.631399 -7.56934,-9.736258 -3.80665,-6.629783 -7.18925,-10.474778 -11.39855,-13.535772 -4.21052,-3.061896 -9.29251,-5.038423 -16.65827,-8.153095 z" />
  <g
     id="g2819"
     transform="matrix(0.94987877,0,0,0.94987877,87.936533,-2.3784544)">
    <path
       style="fill:#ffffff;fill-opacity:1;stroke:none"
       id="path3210"
       d="M 13.21875,2.8125 C 6.1937252,2.8125001 0.5,8.4764701 0.5,15.5 c 0,1.540787 0.46169361,2.89938 1.125,4.15625 -0.2340266,-1.327003 -0.3125,-2.703406 -0.3125,-4 C 1.3125,8.6439001 6.9916203,2.9547074 14,2.9375 13.729968,2.9109551 13.506253,2.8125 13.21875,2.8125 z" />
    <path
       style="fill:#ffffff;fill-opacity:1;stroke:none"
       id="path3226"
       d="m 13.03125,11.6875 c -2.385968,0 -4.3125,1.926533 -4.3125,4.3125 0,0.958442 0.3766093,1.787564 0.90625,2.5 C 9.5167235,18.041784 9.4010433,17.564289 9.34375,17.125 9.1342653,15.518797 9.7359519,14.131601 10.75,13.1875 c 0.805896,-0.750306 1.881192,-1.161948 3.03125,-1.3125 -0.255643,-0.05293 -0.478889,-0.1875 -0.75,-0.1875 z" />
    <path
       style="fill:#ffffff;fill-opacity:1;stroke:none"
       id="path3238"
       d="m 21.03125,12.71875 c 0.05357,0.529053 0.240525,1.031175 0.25,1.53125 0.06054,3.19548 -1.043915,5.797091 -2.875,7.53125 -1.794131,1.699161 -4.278618,2.539136 -6.96875,2.40625 0.581284,0.169632 1.161263,0.345174 1.8125,0.3125 4.543101,-0.227941 8.300463,-4.268966 8.59375,-8.59375 0.08002,-1.179979 -0.286763,-2.209059 -0.8125,-3.1875 z" />
  </g>
  <g
     id="g2850"
     transform="matrix(0.95092551,0,0,0.95092551,174.325,48.825497)">
    <path
       style="fill:#ffffff;fill-opacity:1;stroke:none"
       id="path3210-4"
       d="M 13.21875,2.8125 C 6.1937252,2.8125001 0.5,8.4764701 0.5,15.5 c 0,1.540787 0.46169361,2.89938 1.125,4.15625 -0.2340266,-1.327003 -0.3125,-2.703406 -0.3125,-4 C 1.3125,8.6439001 6.9916203,2.9547074 14,2.9375 13.729968,2.9109551 13.506253,2.8125 13.21875,2.8125 z" />
    <path
       style="fill:#ffffff;fill-opacity:1;stroke:none"
       id="path3226-0"
       d="m 13.03125,11.6875 c -2.385968,0 -4.3125,1.926533 -4.3125,4.3125 0,0.958442 0.3766093,1.787564 0.90625,2.5 C 9.5167235,18.041784 9.4010433,17.564289 9.34375,17.125 9.1342653,15.518797 9.7359519,14.131601 10.75,13.1875 c 0.805896,-0.750306 1.881192,-1.161948 3.03125,-1.3125 -0.255643,-0.05293 -0.478889,-0.1875 -0.75,-0.1875 z" />
    <path
       style="fill:#ffffff;fill-opacity:1;stroke:none"
       id="path3238-9"
       d="m 21.03125,12.71875 c 0.05357,0.529053 0.240525,1.031175 0.25,1.53125 0.06054,3.19548 -1.043915,5.797091 -2.875,7.53125 -1.794131,1.699161 -4.278618,2.539136 -6.96875,2.40625 0.581284,0.169632 1.161263,0.345174 1.8125,0.3125 4.543101,-0.227941 8.300463,-4.268966 8.59375,-8.59375 0.08002,-1.179979 -0.286763,-2.209059 -0.8125,-3.1875 z" />
  </g>
  <g
     id="g2819-4"
     transform="matrix(0.95092551,0,0,0.95092551,1.9018671,48.8255)">
    <path
       style="fill:#ffffff;fill-opacity:1;stroke:none"
       id="path3210-5"
       d="M 13.21875,2.8125 C 6.1937252,2.8125001 0.5,8.4764701 0.5,15.5 c 0,1.540787 0.46169361,2.89938 1.125,4.15625 -0.2340266,-1.327003 -0.3125,-2.703406 -0.3125,-4 C 1.3125,8.6439001 6.9916203,2.9547074 14,2.9375 13.729968,2.9109551 13.506253,2.8125 13.21875,2.8125 z" />
    <path
       style="fill:#ffffff;fill-opacity:1;stroke:none"
       id="path3226-5"
       d="m 13.03125,11.6875 c -2.385968,0 -4.3125,1.926533 -4.3125,4.3125 0,0.958442 0.3766093,1.787564 0.90625,2.5 C 9.5167235,18.041784 9.4010433,17.564289 9.34375,17.125 9.1342653,15.518797 9.7359519,14.131601 10.75,13.1875 c 0.805896,-0.750306 1.881192,-1.161948 3.03125,-1.3125 -0.255643,-0.05293 -0.478889,-0.1875 -0.75,-0.1875 z" />
    <path
       style="fill:#ffffff;fill-opacity:1;stroke:none"
       id="path3238-1"
       d="m 21.03125,12.71875 c 0.05357,0.529053 0.240525,1.031175 0.25,1.53125 0.06054,3.19548 -1.043915,5.797091 -2.875,7.53125 -1.794131,1.699161 -4.278618,2.539136 -6.96875,2.40625 0.581284,0.169632 1.161263,0.345174 1.8125,0.3125 4.543101,-0.227941 8.300463,-4.268966 8.59375,-8.59375 0.08002,-1.179979 -0.286763,-2.209059 -0.8125,-3.1875 z" />
  </g>
  <g
     id="g2819-8"
     transform="matrix(0.95092551,0,0,0.95092551,1.9018592,151.97825)">
    <path
       style="fill:#ffffff;fill-opacity:1;stroke:none"
       id="path3210-57"
       d="M 13.21875,2.8125 C 6.1937252,2.8125001 0.5,8.4764701 0.5,15.5 c 0,1.540787 0.46169361,2.89938 1.125,4.15625 -0.2340266,-1.327003 -0.3125,-2.703406 -0.3125,-4 C 1.3125,8.6439001 6.9916203,2.9547074 14,2.9375 13.729968,2.9109551 13.506253,2.8125 13.21875,2.8125 z" />
    <path
       style="fill:#ffffff;fill-opacity:1;stroke:none"
       id="path3226-6"
       d="m 13.03125,11.6875 c -2.385968,0 -4.3125,1.926533 -4.3125,4.3125 0,0.958442 0.3766093,1.787564 0.90625,2.5 C 9.5167235,18.041784 9.4010433,17.564289 9.34375,17.125 9.1342653,15.518797 9.7359519,14.131601 10.75,13.1875 c 0.805896,-0.750306 1.881192,-1.161948 3.03125,-1.3125 -0.255643,-0.05293 -0.478889,-0.1875 -0.75,-0.1875 z" />
    <path
       style="fill:#ffffff;fill-opacity:1;stroke:none"
       id="path3238-18"
       d="m 21.03125,12.71875 c 0.05357,0.529053 0.240525,1.031175 0.25,1.53125 0.06054,3.19548 -1.043915,5.797091 -2.875,7.53125 -1.794131,1.699161 -4.278618,2.539136 -6.96875,2.40625 0.581284,0.169632 1.161263,0.345174 1.8125,0.3125 4.543101,-0.227941 8.300463,-4.268966 8.59375,-8.59375 0.08002,-1.179979 -0.286763,-2.209059 -0.8125,-3.1875 z" />
  </g>
  <g
     id="g2819-6"
     transform="matrix(0.95092551,0,0,0.95092551,174.32501,151.97824)">
    <path
       style="fill:#ffffff;fill-opacity:1;stroke:none"
       id="path3210-1"
       d="M 13.21875,2.8125 C 6.1937252,2.8125001 0.5,8.4764701 0.5,15.5 c 0,1.540787 0.46169361,2.89938 1.125,4.15625 -0.2340266,-1.327003 -0.3125,-2.703406 -0.3125,-4 C 1.3125,8.6439001 6.9916203,2.9547074 14,2.9375 13.729968,2.9109551 13.506253,2.8125 13.21875,2.8125 z" />
    <path
       style="fill:#ffffff;fill-opacity:1;stroke:none"
       id="path3226-4"
       d="m 13.03125,11.6875 c -2.385968,0 -4.3125,1.926533 -4.3125,4.3125 0,0.958442 0.3766093,1.787564 0.90625,2.5 C 9.5167235,18.041784 9.4010433,17.564289 9.34375,17.125 9.1342653,15.518797 9.7359519,14.131601 10.75,13.1875 c 0.805896,-0.750306 1.881192,-1.161948 3.03125,-1.3125 -0.255643,-0.05293 -0.478889,-0.1875 -0.75,-0.1875 z" />
    <path
       style="fill:#ffffff;fill-opacity:1;stroke:none"
       id="path3238-2"
       d="m 21.03125,12.71875 c 0.05357,0.529053 0.240525,1.031175 0.25,1.53125 0.06054,3.19548 -1.043915,5.797091 -2.875,7.53125 -1.794131,1.699161 -4.278618,2.539136 -6.96875,2.40625 0.581284,0.169632 1.161263,0.345174 1.8125,0.3125 4.543101,-0.227941 8.300463,-4.268966 8.59375,-8.59375 0.08002,-1.179979 -0.286763,-2.209059 -0.8125,-3.1875 z" />
  </g>
  <g
     id="g3046"
     transform="translate(1.1749801,0)">
    <g
       id="g3035">
      <g
         style="font-size:21.79203987px;font-style:normal;font-weight:normal;fill:#ffffff;fill-opacity:1;stroke:none;font-family:Bitstream Vera Sans"
         id="text2949">
        <path
           id="path3026"
           d="m 92.805677,42.255386 5.990683,-15.599184 2.22389,0 6.38439,15.599184 -2.35158,0 -1.81955,-4.724446 -6.522717,0 -1.713143,4.724446 z m 4.500992,-6.405668 5.288401,0 -1.62802,-4.320101 c -0.49657,-1.312334 -0.86545,-2.390585 -1.106626,-3.234756 -0.198632,1.000233 -0.478835,1.993359 -0.840611,2.97938 z" />
        <path
           id="path3028"
           d="m 108.80921,42.255386 0,-11.300364 1.72378,0 0,1.713144 c 0.43981,-0.801585 0.84593,-1.33007 1.21835,-1.585456 0.37242,-0.255364 0.78209,-0.383052 1.229,-0.383064 0.64553,1.2e-5 1.3017,0.205731 1.96852,0.617158 l -0.65972,1.776987 c -0.4682,-0.276647 -0.93638,-0.414975 -1.40457,-0.414985 -0.41853,10e-6 -0.7945,0.125924 -1.1279,0.377743 -0.33342,0.251838 -0.57106,0.601205 -0.71293,1.048104 -0.21281,0.681008 -0.31922,1.425853 -0.31922,2.234535 l 0,5.916198 z" />
        <path
           id="path3030"
           d="m 116.0874,42.255386 0,-11.300364 1.72379,0 0,1.713144 c 0.43981,-0.801585 0.84593,-1.33007 1.21835,-1.585456 0.37242,-0.255364 0.78209,-0.383052 1.229,-0.383064 0.64552,1.2e-5 1.3017,0.205731 1.96852,0.617158 l -0.65972,1.776987 c -0.4682,-0.276647 -0.93639,-0.414975 -1.40457,-0.414985 -0.41854,10e-6 -0.7945,0.125924 -1.12791,0.377743 -0.33341,0.251838 -0.57105,0.601205 -0.71292,1.048104 -0.21282,0.681008 -0.31922,1.425853 -0.31922,2.234535 l 0,5.916198 z" />
      </g>
      <g
         style="font-size:12.46567345px;font-style:normal;font-weight:normal;fill:#ffffff;fill-opacity:1;stroke:none;font-family:Bitstream Vera Sans"
         id="text2953">
        <path
           id="path3033"
           d="m 87.304102,31.120902 1.132136,0.139995 c -0.178551,0.661429 -0.509264,1.174745 -0.992141,1.539949 -0.482887,0.365205 -1.099677,0.547808 -1.850373,0.547808 -0.945478,0 -1.695163,-0.29115 -2.249056,-0.873449 -0.553895,-0.582299 -0.830842,-1.398937 -0.830842,-2.449919 0,-1.087496 0.27999,-1.931525 0.839972,-2.53209 0.55998,-0.600553 1.286332,-0.900833 2.179059,-0.90084 0.864314,7e-6 1.570377,0.2942 2.11819,0.88258 0.547802,0.588391 0.821706,1.416189 0.821712,2.483396 -6e-6,0.06493 -0.002,0.162316 -0.0061,0.292164 l -4.820709,0 c 0.04058,0.710123 0.241439,1.253873 0.602588,1.63125 0.361145,0.37738 0.811565,0.566069 1.35126,0.566068 0.401722,10e-7 0.744609,-0.105503 1.028661,-0.316511 0.284044,-0.211006 0.509254,-0.547806 0.67563,-1.010401 z m -3.597272,-1.771246 3.609446,0 c -0.0487,-0.543745 -0.186666,-0.951558 -0.4139,-1.223437 -0.348978,-0.42201 -0.801426,-0.633017 -1.357346,-0.633023 -0.503175,6e-6 -0.926204,0.168406 -1.269088,0.505201 -0.342889,0.336805 -0.532593,0.787224 -0.569112,1.351259 z" />
      </g>
      <g
         style="font-size:12.46567345px;font-style:normal;font-weight:normal;fill:#ffffff;fill-opacity:1;stroke:none;font-family:Bitstream Vera Sans"
         id="text2953-1">
        <path
           id="path3021"
           d="m 127.9572,34.334711 0.15825,0.967794 c -0.30839,0.06493 -0.58433,0.09739 -0.82779,0.09739 -0.39767,0 -0.70607,-0.0629 -0.92519,-0.18869 -0.21912,-0.125792 -0.37332,-0.291149 -0.46259,-0.49607 -0.0893,-0.20492 -0.13391,-0.636065 -0.13391,-1.293435 l 0,-3.719008 -0.80345,0 0,-0.852145 0.80345,0 0,-1.600817 1.08953,-0.657369 0,2.258186 1.1017,0 0,0.852145 -1.1017,0 0,3.779875 c -1e-5,0.312455 0.0193,0.513318 0.0578,0.602589 0.0386,0.08927 0.10144,0.160285 0.18869,0.213036 0.0872,0.05275 0.21202,0.07913 0.37434,0.07913 0.12173,10e-7 0.28201,-0.0142 0.48085,-0.04261 z" />
      </g>
    </g>
    <path
       style="fill:#ffffff;fill-opacity:1;fill-rule:nonzero;stroke:#ffffff;stroke-width:3;stroke-linecap:square;stroke-linejoin:round;stroke-miterlimit:4;stroke-opacity:1;stroke-dasharray:none"
       id="path2990"
       transform="matrix(0.04514593,0,0,0.04514593,79.221533,38.310081)"
       d="m 132.64815,66.240288 a 25.777777,25.777777 0 1 1 -51.555558,0 25.777777,25.777777 0 1 1 51.555558,0 z" />
    <path
       style="fill:#ffffff;fill-opacity:1;fill-rule:nonzero;stroke:#ffffff;stroke-width:3;stroke-linecap:square;stroke-linejoin:round;stroke-miterlimit:4;stroke-opacity:1;stroke-dasharray:none"
       id="path2990-4"
       transform="matrix(0.04514593,0,0,0.04514593,122.05921,38.310081)"
       d="m 132.64815,66.240288 a 25.777777,25.777777 0 1 1 -51.555558,0 25.777777,25.777777 0 1 1 51.555558,0 z" />
  </g>
  <g
     aria-label="6"
     transform="translate(-110.2817,-0.64356669)"
     style="font-style:normal;font-variant:normal;font-weight:normal;font-stretch:normal;font-size:26.66666603px;line-height:1.25;font-family:Oswald;-inkscape-font-specification:'Oswald, Normal';font-variant-ligatures:normal;font-variant-caps:normal;font-variant-numeric:normal;font-feature-settings:normal;text-align:start;letter-spacing:0px;word-spacing:0px;writing-mode:lr-tb;text-anchor:start;fill:#ffffff;fill-opacity:1;stroke:none"
     id="flowRoot873">
    <path
       d="m 184.07251,43.011351 q -1.49333,0 -2.432,-0.746667 -0.93867,-0.768 -1.38667,-2.048 -0.42666,-1.301333 -0.42666,-2.88 v -5.824 q 0,-1.685334 0.384,-3.072 0.384,-1.386667 1.30133,-2.218667 0.93867,-0.832 2.56,-0.832 1.344,0 2.26133,0.490667 0.93867,0.490666 1.42934,1.429333 0.512,0.938667 0.53333,2.282667 0,0.04267 0,0.128 0.0213,0.064 0.0213,0.128 h -2.304 q 0,-1.258667 -0.40533,-1.92 -0.40533,-0.661334 -1.536,-0.661334 -0.61867,0 -1.06667,0.405334 -0.448,0.384 -0.68266,1.194666 -0.21334,0.810667 -0.21334,2.090667 v 2.624 q 0.34134,-0.533333 0.96,-0.853333 0.64,-0.341334 1.55734,-0.341334 1.42933,0 2.24,0.618667 0.81066,0.618667 1.152,1.749333 0.34133,1.109334 0.34133,2.624001 0,1.557333 -0.42667,2.837333 -0.42666,1.28 -1.36533,2.048 -0.93867,0.746667 -2.496,0.746667 z m 0,-1.898667 q 0.768,0 1.19467,-0.426667 0.42666,-0.448 0.59733,-1.173333 0.192,-0.725333 0.192,-1.578667 0,-1.024 -0.10667,-1.898666 -0.0853,-0.874667 -0.49066,-1.386667 -0.40534,-0.533334 -1.38667,-0.533334 -0.46933,0 -0.85333,0.170667 -0.384,0.170667 -0.66134,0.448 -0.27733,0.256 -0.448,0.554667 v 2.581333 q 0,0.874667 0.17067,1.621334 0.192,0.746666 0.61867,1.194666 0.42666,0.426667 1.17333,0.426667 z"
       style="font-style:normal;font-variant:normal;font-weight:normal;font-stretch:normal;font-size:21.33333397px;font-family:Oswald;-inkscape-font-specification:'Oswald, Normal';font-variant-ligatures:normal;font-variant-caps:normal;font-variant-numeric:normal;font-feature-settings:normal;text-align:start;writing-mode:lr-tb;text-anchor:start"
       id="path1462" />
  </g>
  <g
     aria-label="D'ASSAS"
     transform="translate(-259.45319,30.8912)"
     style="font-style:normal;font-variant:normal;font-weight:normal;font-stretch:normal;font-size:40px;line-height:1.25;font-family:Oswald;-inkscape-font-specification:'Oswald, Normal';font-variant-ligatures:normal;font-variant-caps:normal;font-variant-numeric:normal;font-feature-settings:normal;text-align:center;letter-spacing:0px;word-spacing:0px;writing-mode:lr-tb;text-anchor:middle;fill:#ffffff;fill-opacity:1;stroke:none"
     id="flowRoot881">
    <path
       d="M 316.12762,114.42825 V 90.668245 h 5.16267 q 2.64,0 4.16533,0.821334 1.55467,0.792 2.2,2.405333 0.67467,1.613333 0.67467,4.018667 v 8.741331 q 0,2.52267 -0.67467,4.25334 -0.64533,1.73066 -2.14133,2.64 -1.46667,0.88 -3.96,0.88 z m 3.31467,-2.376 h 1.87733 q 1.81867,0 2.58133,-0.704 0.76267,-0.704 0.90934,-2.05334 0.176,-1.34933 0.176,-3.256 v -7.714665 q 0,-1.848 -0.23467,-2.992 -0.23467,-1.144 -1.02667,-1.672 -0.792,-0.528 -2.49333,-0.528 h -1.78933 z"
       style="font-style:normal;font-variant:normal;font-weight:normal;font-stretch:normal;font-size:29.33333397px;font-family:Oswald;-inkscape-font-specification:'Oswald, Normal';font-variant-ligatures:normal;font-variant-caps:normal;font-variant-numeric:normal;font-feature-settings:normal;text-align:center;writing-mode:lr-tb;text-anchor:middle"
       id="path1472" />
    <path
       d="m 330.33504,97.942912 v -7.274667 h 2.84533 l -1.144,7.274667 z"
       style="font-style:normal;font-variant:normal;font-weight:normal;font-stretch:normal;font-size:29.33333397px;font-family:Oswald;-inkscape-font-specification:'Oswald, Normal';font-variant-ligatures:normal;font-variant-caps:normal;font-variant-numeric:normal;font-feature-settings:normal;text-align:center;writing-mode:lr-tb;text-anchor:middle"
       id="path1474" />
    <path
       d="M 334.02966,114.42825 339.075,90.668245 h 3.19733 l 5.07467,23.760005 h -3.13867 l -1.08533,-5.984 h -4.84 l -1.144,5.984 z m 4.69334,-8.36 h 3.96 l -1.99467,-10.706671 z"
       style="font-style:normal;font-variant:normal;font-weight:normal;font-stretch:normal;font-size:29.33333397px;font-family:Oswald;-inkscape-font-specification:'Oswald, Normal';font-variant-ligatures:normal;font-variant-caps:normal;font-variant-numeric:normal;font-feature-settings:normal;text-align:center;writing-mode:lr-tb;text-anchor:middle"
       id="path1476" />
    <path
       d="m 355.3605,114.69225 q -2.05334,0 -3.432,-0.88 -1.34934,-0.88 -2.05334,-2.43467 -0.704,-1.55467 -0.82133,-3.608 l 2.93333,-0.792 q 0.088,1.26133 0.38134,2.43467 0.32266,1.17333 1.02666,1.936 0.704,0.73333 1.96534,0.73333 1.29066,0 1.936,-0.704 0.67466,-0.73333 0.67466,-2.08267 0,-1.61333 -0.73333,-2.58133 -0.73333,-0.99733 -1.848,-1.99467 l -3.98933,-3.52 q -1.17334,-1.02666 -1.73067,-2.229331 -0.55733,-1.232 -0.55733,-3.021334 0,-2.610666 1.496,-4.048 1.496,-1.437333 4.07733,-1.437333 1.408,0 2.464,0.381333 1.08533,0.352 1.78933,1.114667 0.73334,0.762667 1.144,1.936 0.44,1.144 0.58667,2.698667 l -2.816,0.762666 q -0.088,-1.173333 -0.352,-2.141333 -0.264,-0.997333 -0.93867,-1.584 -0.64533,-0.616 -1.87733,-0.616 -1.232,0 -1.936,0.674667 -0.67467,0.645333 -0.67467,1.936 0,1.085333 0.352,1.789333 0.38134,0.704 1.20267,1.437333 l 4.01867,3.520005 q 1.34933,1.17333 2.376,2.816 1.02666,1.61333 1.02666,3.84266 0,1.76 -0.73333,3.05067 -0.73333,1.26133 -2.024,1.936 -1.26133,0.67467 -2.93333,0.67467 z"
       style="font-style:normal;font-variant:normal;font-weight:normal;font-stretch:normal;font-size:29.33333397px;font-family:Oswald;-inkscape-font-specification:'Oswald, Normal';font-variant-ligatures:normal;font-variant-caps:normal;font-variant-numeric:normal;font-feature-settings:normal;text-align:center;writing-mode:lr-tb;text-anchor:middle"
       id="path1478" />
    <path
       d="m 369.22508,114.69225 q -2.05333,0 -3.432,-0.88 -1.34933,-0.88 -2.05333,-2.43467 -0.704,-1.55467 -0.82134,-3.608 l 2.93334,-0.792 q 0.088,1.26133 0.38133,2.43467 0.32267,1.17333 1.02667,1.936 0.704,0.73333 1.96533,0.73333 1.29067,0 1.936,-0.704 0.67467,-0.73333 0.67467,-2.08267 0,-1.61333 -0.73334,-2.58133 -0.73333,-0.99733 -1.848,-1.99467 l -3.98933,-3.52 q -1.17333,-1.02666 -1.73067,-2.229331 -0.55733,-1.232 -0.55733,-3.021334 0,-2.610666 1.496,-4.048 1.496,-1.437333 4.07733,-1.437333 1.408,0 2.464,0.381333 1.08534,0.352 1.78934,1.114667 0.73333,0.762667 1.144,1.936 0.44,1.144 0.58666,2.698667 l -2.816,0.762666 q -0.088,-1.173333 -0.352,-2.141333 -0.264,-0.997333 -0.93866,-1.584 -0.64534,-0.616 -1.87734,-0.616 -1.232,0 -1.936,0.674667 -0.67466,0.645333 -0.67466,1.936 0,1.085333 0.352,1.789333 0.38133,0.704 1.20266,1.437333 l 4.01867,3.520005 q 1.34933,1.17333 2.376,2.816 1.02667,1.61333 1.02667,3.84266 0,1.76 -0.73334,3.05067 -0.73333,1.26133 -2.024,1.936 -1.26133,0.67467 -2.93333,0.67467 z"
       style="font-style:normal;font-variant:normal;font-weight:normal;font-stretch:normal;font-size:29.33333397px;font-family:Oswald;-inkscape-font-specification:'Oswald, Normal';font-variant-ligatures:normal;font-variant-caps:normal;font-variant-numeric:normal;font-feature-settings:normal;text-align:center;writing-mode:lr-tb;text-anchor:middle"
       id="path1480" />
    <path
       d="m 376.19633,114.42825 5.04533,-23.760005 h 3.19734 l 5.07466,23.760005 H 386.375 l -1.08534,-5.984 h -4.84 l -1.144,5.984 z m 4.69333,-8.36 h 3.96 L 382.855,95.361579 Z"
       style="font-style:normal;font-variant:normal;font-weight:normal;font-stretch:normal;font-size:29.33333397px;font-family:Oswald;-inkscape-font-specification:'Oswald, Normal';font-variant-ligatures:normal;font-variant-caps:normal;font-variant-numeric:normal;font-feature-settings:normal;text-align:center;writing-mode:lr-tb;text-anchor:middle"
       id="path1482" />
    <path
       d="m 397.52716,114.69225 q -2.05333,0 -3.432,-0.88 -1.34933,-0.88 -2.05333,-2.43467 -0.704,-1.55467 -0.82133,-3.608 l 2.93333,-0.792 q 0.088,1.26133 0.38133,2.43467 0.32267,1.17333 1.02667,1.936 0.704,0.73333 1.96533,0.73333 1.29067,0 1.936,-0.704 0.67467,-0.73333 0.67467,-2.08267 0,-1.61333 -0.73333,-2.58133 -0.73334,-0.99733 -1.848,-1.99467 l -3.98934,-3.52 q -1.17333,-1.02666 -1.73066,-2.229331 -0.55734,-1.232 -0.55734,-3.021334 0,-2.610666 1.496,-4.048 1.496,-1.437333 4.07734,-1.437333 1.408,0 2.464,0.381333 1.08533,0.352 1.78933,1.114667 0.73333,0.762667 1.144,1.936 0.44,1.144 0.58667,2.698667 l -2.816,0.762666 q -0.088,-1.173333 -0.352,-2.141333 -0.264,-0.997333 -0.93867,-1.584 -0.64533,-0.616 -1.87733,-0.616 -1.232,0 -1.936,0.674667 -0.67467,0.645333 -0.67467,1.936 0,1.085333 0.352,1.789333 0.38133,0.704 1.20267,1.437333 l 4.01866,3.520005 q 1.34934,1.17333 2.376,2.816 1.02667,1.61333 1.02667,3.84266 0,1.76 -0.73333,3.05067 -0.73334,1.26133 -2.024,1.936 -1.26134,0.67467 -2.93334,0.67467 z"
       style="font-style:normal;font-variant:normal;font-weight:normal;font-stretch:normal;font-size:29.33333397px;font-family:Oswald;-inkscape-font-specification:'Oswald, Normal';font-variant-ligatures:normal;font-variant-caps:normal;font-variant-numeric:normal;font-feature-settings:normal;text-align:center;writing-mode:lr-tb;text-anchor:middle"
       id="path1484" />
  </g>
  <g
     aria-label="RUE"
     transform="translate(-274.43742,-4.9919797)"
     style="font-style:normal;font-variant:normal;font-weight:normal;font-stretch:normal;font-size:29.33333397px;line-height:1.25;font-family:Oswald;-inkscape-font-specification:'Oswald, Normal';font-variant-ligatures:normal;font-variant-caps:normal;font-variant-numeric:normal;font-feature-settings:normal;text-align:center;letter-spacing:0px;word-spacing:0px;writing-mode:lr-tb;text-anchor:middle;fill:#ffffff;fill-opacity:1;stroke:none"
     id="flowRoot881-5">
    <path
       d="M 354.21942,104.50832 V 80.748318 h 4.78133 q 2.376,0 3.93067,0.645333 1.55467,0.616 2.288,2.024 0.76267,1.378667 0.76267,3.637334 0,1.378666 -0.29334,2.522666 -0.29333,1.114667 -0.93866,1.906667 -0.64534,0.762667 -1.70134,1.114667 l 3.37334,11.909335 h -3.19734 l -3.10933,-11.146669 h -2.58133 v 11.146669 z m 3.31467,-13.522669 h 1.26133 q 1.408,0 2.288,-0.352 0.88,-0.352 1.29067,-1.202666 0.41066,-0.850667 0.41066,-2.376 0,-2.082667 -0.76266,-2.992 -0.76267,-0.938667 -3.02134,-0.938667 h -1.46666 z"
       style=""
       id="path1465" />
    <path
       d="m 375.58967,104.77232 q -2.58133,0 -3.96,-1.02667 -1.37867,-1.02667 -1.87733,-2.87467 -0.49867,-1.877329 -0.49867,-4.370662 v -15.752 h 3.168 v 15.898667 q 0,1.525333 0.20533,2.786667 0.20534,1.261328 0.88,1.994668 0.704,0.73333 2.08267,0.73333 1.408,0 2.08267,-0.73333 0.67466,-0.73334 0.88,-1.994668 0.20533,-1.261334 0.20533,-2.786667 V 80.748318 h 3.13867 v 15.752 q 0,2.493333 -0.49867,4.370662 -0.49867,1.848 -1.87733,2.87467 -1.34934,1.02667 -3.93067,1.02667 z"
       style=""
       id="path1467" />
    <path
       d="M 385.38609,104.50832 V 80.748318 h 9.21066 v 2.464 h -5.896 v 7.861333 h 4.78134 v 2.346667 h -4.78134 v 8.712002 h 5.95467 v 2.376 z"
       style=""
       id="path1469" />
  </g>
  <flowRoot
     transform="translate(-274.43742,17.933149)"
     style="font-style:normal;font-variant:normal;font-weight:normal;font-stretch:normal;font-size:29.33333397px;line-height:1.25;font-family:Oswald;-inkscape-font-specification:'Oswald, Normal';font-variant-ligatures:normal;font-variant-caps:normal;font-variant-numeric:normal;font-feature-settings:normal;text-align:center;letter-spacing:0px;word-spacing:0px;writing-mode:lr-tb;text-anchor:middle;fill:#ffffff;fill-opacity:1;stroke:none"
     id="flowRoot881-5-1"
     xml:space="preserve"><flowRegion
       style="font-style:normal;font-variant:normal;font-weight:normal;font-stretch:normal;font-size:29.33333397px;font-family:Oswald;-inkscape-font-specification:'Oswald, Normal';font-variant-ligatures:normal;font-variant-caps:normal;font-variant-numeric:normal;font-feature-settings:normal;text-align:center;writing-mode:lr-tb;text-anchor:middle;fill:#ffffff;fill-opacity:1"
       id="flowRegion883-0-4"><rect
         style="font-style:normal;font-variant:normal;font-weight:normal;font-stretch:normal;font-size:29.33333397px;font-family:Oswald;-inkscape-font-specification:'Oswald, Normal';font-variant-ligatures:normal;font-variant-caps:normal;font-variant-numeric:normal;font-feature-settings:normal;text-align:center;writing-mode:lr-tb;text-anchor:middle;fill:#ffffff;fill-opacity:1"
         y="77.227997"
         x="270.298"
         height="178.91153"
         width="207.22847"
         id="rect885-1-5" /></flowRegion><flowPara
       id="flowPara887-5-2" /></flowRoot></svg>
