<?xml version="1.0" encoding="UTF-8" standalone="no"?>
<svg
   xmlns:dc="http://purl.org/dc/elements/1.1/"
   xmlns:cc="http://creativecommons.org/ns#"
   xmlns:rdf="http://www.w3.org/1999/02/22-rdf-syntax-ns#"
   xmlns:svg="http://www.w3.org/2000/svg"
   xmlns="http://www.w3.org/2000/svg"
   xmlns:sodipodi="http://sodipodi.sourceforge.net/DTD/sodipodi-0.dtd"
   xmlns:inkscape="http://www.inkscape.org/namespaces/inkscape"
   id="svg2"
   height="179.5551"
   width="200"
   version="1.0"
   sodipodi:docname="ruegreneta.svg"
   inkscape:version="0.92.4 (5da689c313, 2019-01-14)">
  <sodipodi:namedview
     pagecolor="#ffffff"
     bordercolor="#666666"
     borderopacity="1"
     objecttolerance="10"
     gridtolerance="10"
     guidetolerance="10"
     inkscape:pageopacity="0"
     inkscape:pageshadow="2"
     inkscape:window-width="1292"
     inkscape:window-height="741"
     id="namedview1717"
     showgrid="false"
     inkscape:zoom="1.3143598"
     inkscape:cx="68.04528"
     inkscape:cy="89.777552"
     inkscape:window-x="74"
     inkscape:window-y="27"
     inkscape:window-maximized="1"
     inkscape:current-layer="svg2" />
  <metadata
     id="metadata871">
    <rdf:RDF>
      <cc:Work
         rdf:about="">
        <dc:format>image/svg+xml</dc:format>
        <dc:type
           rdf:resource="http://purl.org/dc/dcmitype/StillImage" />
        <dc:title />
      </cc:Work>
    </rdf:RDF>
  </metadata>
  <defs
     id="defs4" />
  <rect
     style="fill:#002669;fill-opacity:1;fill-rule:nonzero;stroke:none"
     id="rect3816"
     y="52.832954"
     x="3.6112523"
     height="121.79771"
     width="191.7247" />
  <path
     style="fill:none;stroke:#ffffff;stroke-width:1.00375891px;stroke-linecap:butt;stroke-linejoin:miter;stroke-opacity:1"
     id="path2933"
     d="m 186.69788,74.232477 0,79.809593" />
  <path
     style="fill:none;stroke:#ffffff;stroke-width:1.00337422px;stroke-linecap:butt;stroke-linejoin:miter;stroke-opacity:1"
     id="path2931"
     d="m 25.512654,167.05341 148.953866,0" />
  <path
     style="fill:#004629;fill-opacity:1;fill-rule:nonzero;stroke:none"
     id="rect2976"
     d="M 100,0 C 71.698381,0 52.457318,14.347814 42.0625,32.28125 c -1.415984,2.392013 -5.922277,7.397331 -11.40625,8.5625 l 0,7.96875 -4.96875,0 -25.6875,0 0,23.6875 0,2 0,79.375 0,0.375 0,25.3125 25.6875,0 151.4375,0 22.875,0 0,-25.6875 0,-79.71875 0,-25.34375 -21.71875,0 -8.9375,0 0,-7.96875 C 163.85978,39.678581 159.35348,34.673263 157.9375,32.28125 147.54268,14.347814 128.30162,0 100,0 z m -74.3125,60.3125 148.625,0 0,3.0625 c 0,6.171364 4.98488,11.125 11.15625,11.125 l 1.71875,0 0,79.375 -1.71875,0 c -6.17136,0 -11.15625,4.98489 -11.15625,11.15625 l 0,2.53125 -148.625,0 0,-2.53125 c 0,-6.17137 -4.984886,-11.15625 -11.15625,-11.15625 l -1.71875,0 0,-79.375 1.71875,0 c 6.171364,0 11.15625,-4.953636 11.15625,-11.125 l 0,-3.0625 z" />
  <path
     style="fill:#002669;fill-opacity:1;fill-rule:evenodd;stroke:none"
     id="path3270"
     d="m 110.12214,11.368862 c 1e-4,0.0202 0,0.03913 0,0.05937 0,6.328282 -5.12965,11.487596 -11.457914,11.487596 -6.209428,0 -11.269981,-4.967271 -11.457912,-11.131392 -0.02849,0.0049 -0.06059,-0.005 -0.08905,0 C 70.836445,14.641431 59.318263,22.831105 52.476371,32.592715 51.31522,34.21489 47.623089,44.893066 43.126002,45.683232 l 0,3.651097 113.747978,0 0,-3.651097 C 152.3769,44.893066 148.68477,34.214889 147.52362,32.592715 140.30403,22.292246 127.85683,13.748778 110.12214,11.368862 z" />
  <path
     style="fill:#ffffff;fill-opacity:1;fill-rule:evenodd;stroke:none"
     id="path3171"
     d="m 121.01035,13.486331 -0.20568,0.315104 c 7.15768,3.542183 12.1954,5.637863 16.29996,8.609767 4.10456,2.971905 7.36613,6.681239 11.13139,13.238936 1.74809,3.044504 3.82349,6.697443 7.62872,9.825308 l 0,3.591729 -112.738738,0 0,0.949879 113.213678,0 0.47494,0 0,-0.474939 0,-4.244771 0,-0.23747 -0.17811,-0.148418 c -3.78025,-3.037589 -5.7866,-6.631399 -7.56934,-9.736258 -3.80665,-6.629783 -7.18925,-10.474778 -11.39855,-13.535772 -4.21052,-3.061896 -9.29251,-5.038423 -16.65827,-8.153095 z" />
  <g
     id="g2819"
     transform="matrix(0.94987877,0,0,0.94987877,87.936533,-2.3784544)">
    <path
       style="fill:#ffffff;fill-opacity:1;stroke:none"
       id="path3210"
       d="M 13.21875,2.8125 C 6.1937252,2.8125001 0.5,8.4764701 0.5,15.5 c 0,1.540787 0.46169361,2.89938 1.125,4.15625 -0.2340266,-1.327003 -0.3125,-2.703406 -0.3125,-4 C 1.3125,8.6439001 6.9916203,2.9547074 14,2.9375 13.729968,2.9109551 13.506253,2.8125 13.21875,2.8125 z" />
    <path
       style="fill:#ffffff;fill-opacity:1;stroke:none"
       id="path3226"
       d="m 13.03125,11.6875 c -2.385968,0 -4.3125,1.926533 -4.3125,4.3125 0,0.958442 0.3766093,1.787564 0.90625,2.5 C 9.5167235,18.041784 9.4010433,17.564289 9.34375,17.125 9.1342653,15.518797 9.7359519,14.131601 10.75,13.1875 c 0.805896,-0.750306 1.881192,-1.161948 3.03125,-1.3125 -0.255643,-0.05293 -0.478889,-0.1875 -0.75,-0.1875 z" />
    <path
       style="fill:#ffffff;fill-opacity:1;stroke:none"
       id="path3238"
       d="m 21.03125,12.71875 c 0.05357,0.529053 0.240525,1.031175 0.25,1.53125 0.06054,3.19548 -1.043915,5.797091 -2.875,7.53125 -1.794131,1.699161 -4.278618,2.539136 -6.96875,2.40625 0.581284,0.169632 1.161263,0.345174 1.8125,0.3125 4.543101,-0.227941 8.300463,-4.268966 8.59375,-8.59375 0.08002,-1.179979 -0.286763,-2.209059 -0.8125,-3.1875 z" />
  </g>
  <g
     id="g2850"
     transform="matrix(0.95092551,0,0,0.95092551,174.325,48.825497)">
    <path
       style="fill:#ffffff;fill-opacity:1;stroke:none"
       id="path3210-4"
       d="M 13.21875,2.8125 C 6.1937252,2.8125001 0.5,8.4764701 0.5,15.5 c 0,1.540787 0.46169361,2.89938 1.125,4.15625 -0.2340266,-1.327003 -0.3125,-2.703406 -0.3125,-4 C 1.3125,8.6439001 6.9916203,2.9547074 14,2.9375 13.729968,2.9109551 13.506253,2.8125 13.21875,2.8125 z" />
    <path
       style="fill:#ffffff;fill-opacity:1;stroke:none"
       id="path3226-0"
       d="m 13.03125,11.6875 c -2.385968,0 -4.3125,1.926533 -4.3125,4.3125 0,0.958442 0.3766093,1.787564 0.90625,2.5 C 9.5167235,18.041784 9.4010433,17.564289 9.34375,17.125 9.1342653,15.518797 9.7359519,14.131601 10.75,13.1875 c 0.805896,-0.750306 1.881192,-1.161948 3.03125,-1.3125 -0.255643,-0.05293 -0.478889,-0.1875 -0.75,-0.1875 z" />
    <path
       style="fill:#ffffff;fill-opacity:1;stroke:none"
       id="path3238-9"
       d="m 21.03125,12.71875 c 0.05357,0.529053 0.240525,1.031175 0.25,1.53125 0.06054,3.19548 -1.043915,5.797091 -2.875,7.53125 -1.794131,1.699161 -4.278618,2.539136 -6.96875,2.40625 0.581284,0.169632 1.161263,0.345174 1.8125,0.3125 4.543101,-0.227941 8.300463,-4.268966 8.59375,-8.59375 0.08002,-1.179979 -0.286763,-2.209059 -0.8125,-3.1875 z" />
  </g>
  <g
     id="g2819-4"
     transform="matrix(0.95092551,0,0,0.95092551,1.9018671,48.8255)">
    <path
       style="fill:#ffffff;fill-opacity:1;stroke:none"
       id="path3210-5"
       d="M 13.21875,2.8125 C 6.1937252,2.8125001 0.5,8.4764701 0.5,15.5 c 0,1.540787 0.46169361,2.89938 1.125,4.15625 -0.2340266,-1.327003 -0.3125,-2.703406 -0.3125,-4 C 1.3125,8.6439001 6.9916203,2.9547074 14,2.9375 13.729968,2.9109551 13.506253,2.8125 13.21875,2.8125 z" />
    <path
       style="fill:#ffffff;fill-opacity:1;stroke:none"
       id="path3226-5"
       d="m 13.03125,11.6875 c -2.385968,0 -4.3125,1.926533 -4.3125,4.3125 0,0.958442 0.3766093,1.787564 0.90625,2.5 C 9.5167235,18.041784 9.4010433,17.564289 9.34375,17.125 9.1342653,15.518797 9.7359519,14.131601 10.75,13.1875 c 0.805896,-0.750306 1.881192,-1.161948 3.03125,-1.3125 -0.255643,-0.05293 -0.478889,-0.1875 -0.75,-0.1875 z" />
    <path
       style="fill:#ffffff;fill-opacity:1;stroke:none"
       id="path3238-1"
       d="m 21.03125,12.71875 c 0.05357,0.529053 0.240525,1.031175 0.25,1.53125 0.06054,3.19548 -1.043915,5.797091 -2.875,7.53125 -1.794131,1.699161 -4.278618,2.539136 -6.96875,2.40625 0.581284,0.169632 1.161263,0.345174 1.8125,0.3125 4.543101,-0.227941 8.300463,-4.268966 8.59375,-8.59375 0.08002,-1.179979 -0.286763,-2.209059 -0.8125,-3.1875 z" />
  </g>
  <g
     id="g2819-8"
     transform="matrix(0.95092551,0,0,0.95092551,1.9018592,151.97825)">
    <path
       style="fill:#ffffff;fill-opacity:1;stroke:none"
       id="path3210-57"
       d="M 13.21875,2.8125 C 6.1937252,2.8125001 0.5,8.4764701 0.5,15.5 c 0,1.540787 0.46169361,2.89938 1.125,4.15625 -0.2340266,-1.327003 -0.3125,-2.703406 -0.3125,-4 C 1.3125,8.6439001 6.9916203,2.9547074 14,2.9375 13.729968,2.9109551 13.506253,2.8125 13.21875,2.8125 z" />
    <path
       style="fill:#ffffff;fill-opacity:1;stroke:none"
       id="path3226-6"
       d="m 13.03125,11.6875 c -2.385968,0 -4.3125,1.926533 -4.3125,4.3125 0,0.958442 0.3766093,1.787564 0.90625,2.5 C 9.5167235,18.041784 9.4010433,17.564289 9.34375,17.125 9.1342653,15.518797 9.7359519,14.131601 10.75,13.1875 c 0.805896,-0.750306 1.881192,-1.161948 3.03125,-1.3125 -0.255643,-0.05293 -0.478889,-0.1875 -0.75,-0.1875 z" />
    <path
       style="fill:#ffffff;fill-opacity:1;stroke:none"
       id="path3238-18"
       d="m 21.03125,12.71875 c 0.05357,0.529053 0.240525,1.031175 0.25,1.53125 0.06054,3.19548 -1.043915,5.797091 -2.875,7.53125 -1.794131,1.699161 -4.278618,2.539136 -6.96875,2.40625 0.581284,0.169632 1.161263,0.345174 1.8125,0.3125 4.543101,-0.227941 8.300463,-4.268966 8.59375,-8.59375 0.08002,-1.179979 -0.286763,-2.209059 -0.8125,-3.1875 z" />
  </g>
  <g
     id="g2819-6"
     transform="matrix(0.95092551,0,0,0.95092551,174.32501,151.97824)">
    <path
       style="fill:#ffffff;fill-opacity:1;stroke:none"
       id="path3210-1"
       d="M 13.21875,2.8125 C 6.1937252,2.8125001 0.5,8.4764701 0.5,15.5 c 0,1.540787 0.46169361,2.89938 1.125,4.15625 -0.2340266,-1.327003 -0.3125,-2.703406 -0.3125,-4 C 1.3125,8.6439001 6.9916203,2.9547074 14,2.9375 13.729968,2.9109551 13.506253,2.8125 13.21875,2.8125 z" />
    <path
       style="fill:#ffffff;fill-opacity:1;stroke:none"
       id="path3226-4"
       d="m 13.03125,11.6875 c -2.385968,0 -4.3125,1.926533 -4.3125,4.3125 0,0.958442 0.3766093,1.787564 0.90625,2.5 C 9.5167235,18.041784 9.4010433,17.564289 9.34375,17.125 9.1342653,15.518797 9.7359519,14.131601 10.75,13.1875 c 0.805896,-0.750306 1.881192,-1.161948 3.03125,-1.3125 -0.255643,-0.05293 -0.478889,-0.1875 -0.75,-0.1875 z" />
    <path
       style="fill:#ffffff;fill-opacity:1;stroke:none"
       id="path3238-2"
       d="m 21.03125,12.71875 c 0.05357,0.529053 0.240525,1.031175 0.25,1.53125 0.06054,3.19548 -1.043915,5.797091 -2.875,7.53125 -1.794131,1.699161 -4.278618,2.539136 -6.96875,2.40625 0.581284,0.169632 1.161263,0.345174 1.8125,0.3125 4.543101,-0.227941 8.300463,-4.268966 8.59375,-8.59375 0.08002,-1.179979 -0.286763,-2.209059 -0.8125,-3.1875 z" />
  </g>
  <g
     id="g3046"
     transform="translate(1.1749801,0)">
    <g
       id="g3035">
      <g
         style="font-size:21.79203987px;font-style:normal;font-weight:normal;fill:#ffffff;fill-opacity:1;stroke:none;font-family:Bitstream Vera Sans"
         id="text2949">
        <path
           id="path3026"
           d="m 92.805677,42.255386 5.990683,-15.599184 2.22389,0 6.38439,15.599184 -2.35158,0 -1.81955,-4.724446 -6.522717,0 -1.713143,4.724446 z m 4.500992,-6.405668 5.288401,0 -1.62802,-4.320101 c -0.49657,-1.312334 -0.86545,-2.390585 -1.106626,-3.234756 -0.198632,1.000233 -0.478835,1.993359 -0.840611,2.97938 z" />
        <path
           id="path3028"
           d="m 108.80921,42.255386 0,-11.300364 1.72378,0 0,1.713144 c 0.43981,-0.801585 0.84593,-1.33007 1.21835,-1.585456 0.37242,-0.255364 0.78209,-0.383052 1.229,-0.383064 0.64553,1.2e-5 1.3017,0.205731 1.96852,0.617158 l -0.65972,1.776987 c -0.4682,-0.276647 -0.93638,-0.414975 -1.40457,-0.414985 -0.41853,10e-6 -0.7945,0.125924 -1.1279,0.377743 -0.33342,0.251838 -0.57106,0.601205 -0.71293,1.048104 -0.21281,0.681008 -0.31922,1.425853 -0.31922,2.234535 l 0,5.916198 z" />
        <path
           id="path3030"
           d="m 116.0874,42.255386 0,-11.300364 1.72379,0 0,1.713144 c 0.43981,-0.801585 0.84593,-1.33007 1.21835,-1.585456 0.37242,-0.255364 0.78209,-0.383052 1.229,-0.383064 0.64552,1.2e-5 1.3017,0.205731 1.96852,0.617158 l -0.65972,1.776987 c -0.4682,-0.276647 -0.93639,-0.414975 -1.40457,-0.414985 -0.41854,10e-6 -0.7945,0.125924 -1.12791,0.377743 -0.33341,0.251838 -0.57105,0.601205 -0.71292,1.048104 -0.21282,0.681008 -0.31922,1.425853 -0.31922,2.234535 l 0,5.916198 z" />
      </g>
      <g
         style="font-size:12.46567345px;font-style:normal;font-weight:normal;fill:#ffffff;fill-opacity:1;stroke:none;font-family:Bitstream Vera Sans"
         id="text2953">
        <path
           id="path3033"
           d="m 87.304102,31.120902 1.132136,0.139995 c -0.178551,0.661429 -0.509264,1.174745 -0.992141,1.539949 -0.482887,0.365205 -1.099677,0.547808 -1.850373,0.547808 -0.945478,0 -1.695163,-0.29115 -2.249056,-0.873449 -0.553895,-0.582299 -0.830842,-1.398937 -0.830842,-2.449919 0,-1.087496 0.27999,-1.931525 0.839972,-2.53209 0.55998,-0.600553 1.286332,-0.900833 2.179059,-0.90084 0.864314,7e-6 1.570377,0.2942 2.11819,0.88258 0.547802,0.588391 0.821706,1.416189 0.821712,2.483396 -6e-6,0.06493 -0.002,0.162316 -0.0061,0.292164 l -4.820709,0 c 0.04058,0.710123 0.241439,1.253873 0.602588,1.63125 0.361145,0.37738 0.811565,0.566069 1.35126,0.566068 0.401722,10e-7 0.744609,-0.105503 1.028661,-0.316511 0.284044,-0.211006 0.509254,-0.547806 0.67563,-1.010401 z m -3.597272,-1.771246 3.609446,0 c -0.0487,-0.543745 -0.186666,-0.951558 -0.4139,-1.223437 -0.348978,-0.42201 -0.801426,-0.633017 -1.357346,-0.633023 -0.503175,6e-6 -0.926204,0.168406 -1.269088,0.505201 -0.342889,0.336805 -0.532593,0.787224 -0.569112,1.351259 z" />
      </g>
      <g
         style="font-size:12.46567345px;font-style:normal;font-weight:normal;fill:#ffffff;fill-opacity:1;stroke:none;font-family:Bitstream Vera Sans"
         id="text2953-1">
        <path
           id="path3021"
           d="m 127.9572,34.334711 0.15825,0.967794 c -0.30839,0.06493 -0.58433,0.09739 -0.82779,0.09739 -0.39767,0 -0.70607,-0.0629 -0.92519,-0.18869 -0.21912,-0.125792 -0.37332,-0.291149 -0.46259,-0.49607 -0.0893,-0.20492 -0.13391,-0.636065 -0.13391,-1.293435 l 0,-3.719008 -0.80345,0 0,-0.852145 0.80345,0 0,-1.600817 1.08953,-0.657369 0,2.258186 1.1017,0 0,0.852145 -1.1017,0 0,3.779875 c -1e-5,0.312455 0.0193,0.513318 0.0578,0.602589 0.0386,0.08927 0.10144,0.160285 0.18869,0.213036 0.0872,0.05275 0.21202,0.07913 0.37434,0.07913 0.12173,10e-7 0.28201,-0.0142 0.48085,-0.04261 z" />
      </g>
    </g>
    <path
       style="fill:#ffffff;fill-opacity:1;fill-rule:nonzero;stroke:#ffffff;stroke-width:3;stroke-linecap:square;stroke-linejoin:round;stroke-miterlimit:4;stroke-opacity:1;stroke-dasharray:none"
       id="path2990"
       transform="matrix(0.04514593,0,0,0.04514593,79.221533,38.310081)"
       d="m 132.64815,66.240288 a 25.777777,25.777777 0 1 1 -51.555558,0 25.777777,25.777777 0 1 1 51.555558,0 z" />
    <path
       style="fill:#ffffff;fill-opacity:1;fill-rule:nonzero;stroke:#ffffff;stroke-width:3;stroke-linecap:square;stroke-linejoin:round;stroke-miterlimit:4;stroke-opacity:1;stroke-dasharray:none"
       id="path2990-4"
       transform="matrix(0.04514593,0,0,0.04514593,122.05921,38.310081)"
       d="m 132.64815,66.240288 a 25.777777,25.777777 0 1 1 -51.555558,0 25.777777,25.777777 0 1 1 51.555558,0 z" />
  </g>
  <g
     aria-label="2"
     transform="translate(-107.76742,3.6868734)"
     style="font-style:normal;font-variant:normal;font-weight:normal;font-stretch:normal;font-size:21.33333397px;line-height:1.25;font-family:Oswald;-inkscape-font-specification:'Oswald, Normal';font-variant-ligatures:normal;font-variant-caps:normal;font-variant-numeric:normal;font-feature-settings:normal;text-align:start;letter-spacing:0px;word-spacing:0px;writing-mode:lr-tb;text-anchor:start;fill:#ffffff;fill-opacity:1;stroke:none"
     id="flowRoot873">
    <path
       d="m 179.46451,37.859388 v -1.621333 l 4.39467,-6.848001 q 0.49066,-0.768 0.896,-1.429333 0.42666,-0.661333 0.68266,-1.386667 0.27734,-0.746666 0.27734,-1.706666 0,-1.194667 -0.384,-1.877334 -0.384,-0.682667 -1.344,-0.682667 -0.81067,0 -1.25867,0.448 -0.448,0.448 -0.61867,1.173334 -0.17066,0.725333 -0.17066,1.557333 v 0.576 h -2.28267 v -0.597333 q 0,-1.557334 0.40533,-2.666667 0.42667,-1.130667 1.344,-1.749333 0.93867,-0.618667 2.47467,-0.618667 2.09067,0 3.11467,1.194667 1.024,1.173333 1.024,3.264 0,1.109333 -0.27734,1.941333 -0.256,0.832 -0.68266,1.557334 -0.42667,0.725333 -0.93867,1.493333 l -3.968,6.058667 h 5.46133 v 1.92 z"
       style=""
       id="path860" />
  </g>
  <g
     aria-label="RUE GRENETA"
     transform="translate(-239.98899,-2.2797533)"
     style="font-style:normal;font-variant:normal;font-weight:normal;font-stretch:normal;font-size:29.33333397px;line-height:1.25;font-family:Oswald;-inkscape-font-specification:'Oswald, Normal';font-variant-ligatures:normal;font-variant-caps:normal;font-variant-numeric:normal;font-feature-settings:normal;text-align:center;letter-spacing:0px;word-spacing:0px;writing-mode:lr-tb;text-anchor:middle;fill:#ffffff;fill-opacity:1;stroke:none"
     id="flowRoot881">
    <path
       d="M 319.87274,104.50832 V 80.748318 h 4.78133 q 2.376,0 3.93067,0.645333 1.55467,0.616 2.288,2.024 0.76267,1.378667 0.76267,3.637334 0,1.378666 -0.29334,2.522666 -0.29333,1.114667 -0.93866,1.906667 -0.64534,0.762667 -1.70134,1.114667 l 3.37334,11.909335 h -3.19734 l -3.10933,-11.146669 h -2.58133 v 11.146669 z m 3.31467,-13.522669 h 1.26133 q 1.408,0 2.288,-0.352 0.88,-0.352 1.29067,-1.202666 0.41066,-0.850667 0.41066,-2.376 0,-2.082667 -0.76266,-2.992 -0.76267,-0.938667 -3.02134,-0.938667 h -1.46666 z"
       style=""
       id="path863" />
    <path
       d="m 341.24299,104.77232 q -2.58133,0 -3.96,-1.02667 -1.37867,-1.02667 -1.87733,-2.87467 -0.49867,-1.877329 -0.49867,-4.370662 v -15.752 h 3.168 v 15.898667 q 0,1.525333 0.20533,2.786667 0.20534,1.261328 0.88,1.994668 0.704,0.73333 2.08267,0.73333 1.408,0 2.08267,-0.73333 0.67466,-0.73334 0.88,-1.994668 0.20533,-1.261334 0.20533,-2.786667 V 80.748318 h 3.13867 v 15.752 q 0,2.493333 -0.49867,4.370662 -0.49867,1.848 -1.87733,2.87467 -1.34934,1.02667 -3.93067,1.02667 z"
       style=""
       id="path865" />
    <path
       d="M 351.03941,104.50832 V 80.748318 h 9.21066 v 2.464 h -5.896 v 7.861333 h 4.78134 v 2.346667 h -4.78134 v 8.712002 h 5.95467 v 2.376 z"
       style=""
       id="path867" />
    <path
       d="m 298.72157,141.46832 q -2.22933,0 -3.57866,-0.93866 -1.32,-0.968 -1.936,-2.78667 -0.58667,-1.81867 -0.58667,-4.37067 v -7.94933 q 0,-2.61067 0.528,-4.42933 0.55733,-1.848 1.936,-2.816 1.408,-0.968 3.90133,-0.968 2.22934,0 3.57867,0.76266 1.37867,0.73334 1.99467,2.288 0.616,1.52534 0.616,3.872 v 0.88 h -3.10934 v -0.73333 q 0,-1.55467 -0.20533,-2.52267 -0.20533,-0.99733 -0.85067,-1.46666 -0.616,-0.49867 -1.96533,-0.49867 -1.46667,0 -2.14133,0.67467 -0.64534,0.67466 -0.82134,1.848 -0.14666,1.144 -0.14666,2.61066 v 8.8 q 0,1.70134 0.23466,2.84534 0.264,1.144 0.968,1.70133 0.704,0.55733 1.99467,0.55733 1.29067,0 1.99467,-0.616 0.704,-0.616 0.968,-1.81866 0.264,-1.20267 0.264,-2.992 v -1.64267 h -3.02134 v -2.34667 h 6.01334 v 11.76267 h -2.08267 l -0.32267,-2.728 q -0.46933,1.32 -1.46666,2.17067 -0.99734,0.85066 -2.75734,0.85066 z"
       style=""
       id="path869" />
    <path
       d="m 308.75816,141.17499 v -23.76 h 4.78133 q 2.376,0 3.93067,0.64533 1.55466,0.616 2.288,2.024 0.76266,1.37867 0.76266,3.63734 0,1.37866 -0.29333,2.52266 -0.29333,1.11467 -0.93867,1.90667 -0.64533,0.76267 -1.70133,1.11467 l 3.37333,11.90933 h -3.19733 l -3.10933,-11.14667 h -2.58134 v 11.14667 z m 3.31466,-13.52267 h 1.26134 q 1.408,0 2.288,-0.352 0.88,-0.352 1.29066,-1.20266 0.41067,-0.85067 0.41067,-2.376 0,-2.08267 -0.76267,-2.992 -0.76266,-0.93867 -3.02133,-0.93867 h -1.46667 z"
       style=""
       id="path871" />
    <path
       d="m 323.99774,141.17499 v -23.76 h 9.21067 v 2.464 h -5.896 v 7.86133 h 4.78133 v 2.34667 h -4.78133 v 8.712 h 5.95466 v 2.376 z"
       style=""
       id="path873" />
    <path
       d="m 335.91441,141.17499 v -23.76 h 2.25866 l 6.74667,15.78133 v -15.78133 h 2.75733 v 23.76 h -2.112 l -6.83466,-16.22133 v 16.22133 z"
       style=""
       id="path875" />
    <path
       d="m 351.38316,141.17499 v -23.76 h 9.21066 v 2.464 h -5.896 v 7.86133 h 4.78134 v 2.34667 h -4.78134 v 8.712 h 5.95467 v 2.376 z"
       style=""
       id="path877" />
    <path
       d="m 365.91049,141.17499 v -21.296 h -4.01867 v -2.464 h 11.23467 v 2.464 h -3.90133 v 21.296 z"
       style=""
       id="path879" />
    <path
       d="m 374.04041,141.17499 5.04533,-23.76 h 3.19733 l 5.07467,23.76 h -3.13867 l -1.08533,-5.984 h -4.84 l -1.144,5.984 z m 4.69333,-8.36 h 3.96 l -1.99467,-10.70667 z"
       style=""
       id="path881" />
  </g>
</svg>
